<?xml version="1.0" standalone="no"?>
<!DOCTYPE svg PUBLIC "-//W3C//DTD SVG 20010904//EN"
 "http://www.w3.org/TR/2001/REC-SVG-20010904/DTD/svg10.dtd">
<svg version="1.0" xmlns="http://www.w3.org/2000/svg"
 width="72.000000pt" height="72.000000pt" viewBox="0 0 72.000000 72.000000"
 preserveAspectRatio="xMidYMid meet">
<metadata>
Created by potrace 1.11, written by Peter Selinger 2001-2013
</metadata>
<g transform="translate(0.000000,72.000000) scale(0.100000,-0.100000)"
fill="#000000" stroke="none">
<path d="M349 705 c-1 -11 -2 -29 -3 -39 -1 -13 -10 -20 -31 -23 -45 -6 -107
-36 -148 -72 -39 -35 -84 -117 -90 -166 -3 -25 -8 -30 -33 -31 -16 -1 -33 -2
-39 -3 -15 -2 13 -24 32 -26 29 -2 43 -14 43 -39 0 -38 50 -124 92 -161 39
-33 90 -57 150 -69 20 -5 26 -11 23 -25 -2 -11 3 -27 10 -38 16 -20 16 -19 19
41 1 14 10 20 31 23 51 6 133 52 169 95 34 39 58 90 70 150 5 22 11 26 30 22
13 -2 29 2 36 11 10 12 9 15 -6 17 -11 0 -27 1 -36 0 -12 -1 -20 8 -24 26 -28
134 -112 218 -246 246 -20 5 -26 11 -23 25 2 11 -3 27 -10 38 -14 17 -14 17
-16 -2z"/>
<path d="M30 589 c0 -46 4 -68 10 -64 6 4 10 29 9 56 -2 27 0 51 3 54 3 3 31
6 62 6 31 1 56 5 56 10 0 5 -31 9 -70 9 l-70 0 0 -71z"/>
<path d="M545 651 c3 -5 30 -10 61 -10 31 0 58 -2 62 -5 3 -3 4 -28 3 -55 -1
-27 3 -52 9 -56 6 -4 10 19 10 64 l0 71 -76 0 c-44 0 -73 -4 -69 -9z"/>
<path d="M30 131 l0 -70 33 -3 c46 -4 107 3 107 13 0 4 -25 8 -56 8 -30 -1
-58 1 -60 4 -3 3 -6 28 -7 57 -2 78 -17 71 -17 -9z"/>
<path d="M678 194 c-4 -6 -7 -32 -6 -58 0 -26 -2 -50 -6 -53 -3 -4 -31 -6 -61
-5 -30 0 -57 -3 -60 -9 -4 -5 2 -9 12 -10 62 -2 125 0 129 4 3 2 4 36 2 73 -2
38 -6 64 -10 58z"/>
</g>
</svg>
